
DisplayName "Monte Carlo"



EVENT   1
 PAGE   1
  250(bytes(0x04,0x08,0x6f,0x3a,0x0c,0x52,0x50,0x47,0x3a,0x3a,0x53,0x45,0x08,0x3a,0x0a,0x40,0x6e,0x61,0x6d,0x65,0x49,0x22,0x09,0x4d,0x6f,0x76,0x65,0x06,0x3a,0x06,0x45,0x54,0x3a,0x0b,0x40,0x70,0x69,0x74,0x63,0x68,0x69,0x69,0x3a,0x0c,0x40,0x76,0x6f,0x6c,0x75,0x6d,0x65,0x69,0x55))
  TeleportPlayer(0,2,200,272,2,0)
  0()



EVENT   2
 PAGE   1
  250(bytes(0x04,0x08,0x6f,0x3a,0x0c,0x52,0x50,0x47,0x3a,0x3a,0x53,0x45,0x08,0x3a,0x0a,0x40,0x6e,0x61,0x6d,0x65,0x49,0x22,0x09,0x4d,0x6f,0x76,0x65,0x06,0x3a,0x06,0x45,0x54,0x3a,0x0b,0x40,0x70,0x69,0x74,0x63,0x68,0x69,0x69,0x3a,0x0c,0x40,0x76,0x6f,0x6c,0x75,0x6d,0x65,0x69,0x55))
  TeleportPlayer(0,2,200,272,2,0)
  0()



EVENT   3
 PAGE   1
  250(bytes(0x04,0x08,0x6f,0x3a,0x0c,0x52,0x50,0x47,0x3a,0x3a,0x53,0x45,0x08,0x3a,0x0a,0x40,0x6e,0x61,0x6d,0x65,0x49,0x22,0x09,0x4d,0x6f,0x76,0x65,0x06,0x3a,0x06,0x45,0x54,0x3a,0x0b,0x40,0x70,0x69,0x74,0x63,0x68,0x69,0x69,0x3a,0x0c,0x40,0x76,0x6f,0x6c,0x75,0x6d,0x65,0x69,0x55))
  TeleportPlayer(0,219,8,42,0,0)
  0()



EVENT   4
 PAGE   1
  250(bytes(0x04,0x08,0x6f,0x3a,0x0c,0x52,0x50,0x47,0x3a,0x3a,0x53,0x45,0x08,0x3a,0x0a,0x40,0x6e,0x61,0x6d,0x65,0x49,0x22,0x09,0x4d,0x6f,0x76,0x65,0x06,0x3a,0x06,0x45,0x54,0x3a,0x0b,0x40,0x70,0x69,0x74,0x63,0x68,0x69,0x69,0x3a,0x0c,0x40,0x76,0x6f,0x6c,0x75,0x6d,0x65,0x69,0x55))
  TeleportPlayer(0,219,9,17,0,0)
  0()



EVENT   5
 PAGE   1
  ChangeSwitch(31,31,1)
  250(bytes(0x04,0x08,0x6f,0x3a,0x0c,0x52,0x50,0x47,0x3a,0x3a,0x53,0x45,0x08,0x3a,0x0a,0x40,0x6e,0x61,0x6d,0x65,0x49,0x22,0x09,0x4d,0x6f,0x76,0x65,0x06,0x3a,0x06,0x45,0x54,0x3a,0x0b,0x40,0x70,0x69,0x74,0x63,0x68,0x69,0x69,0x3a,0x0c,0x40,0x76,0x6f,0x6c,0x75,0x6d,0x65,0x69,0x55))
  TeleportPlayer(0,219,28,13,0,0)
  0()



EVENT   6
 PAGE   1
  250(bytes(0x04,0x08,0x6f,0x3a,0x0c,0x52,0x50,0x47,0x3a,0x3a,0x53,0x45,0x08,0x3a,0x0a,0x40,0x6e,0x61,0x6d,0x65,0x49,0x22,0x09,0x4d,0x6f,0x76,0x65,0x06,0x3a,0x06,0x45,0x54,0x3a,0x0b,0x40,0x70,0x69,0x74,0x63,0x68,0x69,0x69,0x3a,0x0c,0x40,0x76,0x6f,0x6c,0x75,0x6d,0x65,0x69,0x55))
  TeleportPlayer(0,219,36,34,0,0)
  0()



EVENT   7
 PAGE   1
  250(bytes(0x04,0x08,0x6f,0x3a,0x0c,0x52,0x50,0x47,0x3a,0x3a,0x53,0x45,0x08,0x3a,0x0a,0x40,0x6e,0x61,0x6d,0x65,0x49,0x22,0x09,0x4d,0x6f,0x76,0x65,0x06,0x3a,0x06,0x45,0x54,0x3a,0x0b,0x40,0x70,0x69,0x74,0x63,0x68,0x69,0x69,0x3a,0x0c,0x40,0x76,0x6f,0x6c,0x75,0x6d,0x65,0x69,0x55))
  TeleportPlayer(0,219,19,66,0,0)
  0()



EVENT   8
 PAGE   1
  250(bytes(0x04,0x08,0x6f,0x3a,0x0c,0x52,0x50,0x47,0x3a,0x3a,0x53,0x45,0x08,0x3a,0x0a,0x40,0x6e,0x61,0x6d,0x65,0x49,0x22,0x09,0x4d,0x6f,0x76,0x65,0x06,0x3a,0x06,0x45,0x54,0x3a,0x0b,0x40,0x70,0x69,0x74,0x63,0x68,0x69,0x69,0x3a,0x0c,0x40,0x76,0x6f,0x6c,0x75,0x6d,0x65,0x69,0x55))
  TeleportPlayer(0,219,35,57,0,0)
  0()



EVENT   9
 PAGE   1
  250(bytes(0x04,0x08,0x6f,0x3a,0x0c,0x52,0x50,0x47,0x3a,0x3a,0x53,0x45,0x08,0x3a,0x0a,0x40,0x6e,0x61,0x6d,0x65,0x49,0x22,0x09,0x4d,0x6f,0x76,0x65,0x06,0x3a,0x06,0x45,0x54,0x3a,0x0b,0x40,0x70,0x69,0x74,0x63,0x68,0x69,0x69,0x3a,0x0c,0x40,0x76,0x6f,0x6c,0x75,0x6d,0x65,0x69,0x55))
  TeleportPlayer(0,219,73,21,0,0)
  0()



EVENT   11
 PAGE   1
  If(1,1024,0,0,0)
   ShowMessageFace("",0,0,2,1)
   ShowMessage("\\n<Informant>Hey, you guys need some info? I got info on this town, the Elka Company, and the surrounding area for low prices.")
   ShowChoices(strings("Buy normal information （10G）","Buy expensive information （100G）","Don't buy"),3)
   IfPlayerPicksChoice(0,null)
    If(7,10,0)
     125(1,0,10)
     ShowMessageFace("",0,0,2,2)
     ShowMessage("\\n<Informant>Heh, thanks for your business. As you may or may not know, the Elka Company rules this town.")
     ShowMessageFace("",0,0,2,3)
     ShowMessage("\\n<Informant>Their headquarters is that large building on the far East side of town. Their boss is Elka, the 8th boss since the company was founded.")
     ShowMessageFace("",0,0,2,4)
     ShowMessage("\\n<Informant>Elka's power spans all over Southern Sentora. He's pretty much the king of criminal society.")
     ShowMessageFace("",0,0,2,5)
     ShowMessage("\\n<Informant>The organization is too powerful to care about petty crimes. They are more engaged in politics and large-scale black market transactions.")
     ShowMessageFace("",0,0,2,6)
     ShowMessage("\\n<Informant>The company also acts like pragmatic police force, eliminating small time thieves and thugs. The bulk of their force is composed of first-class Black Marketeers and skilled ex-Adventurers.")
     ShowMessageFace("",0,0,2,7)
     ShowMessage("\\n<Informant>That's why they don't involve themselves with ordinary adventurers. But, if you pick a fight with them, you'll probably go missing, if you catch my meaning.")
     ShowMessageFace("",0,0,2,8)
     ShowMessage("\\n<Informant>Of course, they know a lot about all of Southern Sentora. If you can get in, you can probably get some real nice info, but that's a big if.")
     If(0,4,0)
      ShowMessageFace("alice_fc5",0,0,2,9)
      ShowMessage("\\n<Alice>Hmm, there might be some useful information. I sure would like to hear what they have to say.")
      0()
     EndIf()
     If(0,5,0)
      ShowMessageFace("iriasu_fc4",2,0,2,10)
      ShowMessage("\\n<Ilias>That kind of bunch might have some good information. It seems we ought to hear what the have to say.")
      0()
     EndIf()
     ShowMessageFace("",0,0,2,11)
     ShowMessage("\\n<Informant>I wouldn't waste my time. The Elka Company isn't gonna meet with normal adventures.")
     ShowMessageFace("",0,0,2,12)
     ShowMessage("\\n<Informant>Well, that's it for info. Well worth it in my opinion.")
     EndEventProcessing()
     0()
    Else()
     ShowMessageFace("",0,0,2,13)
     ShowMessage("\\n<Informant>You don't have enough money.")
     EndEventProcessing()
     0()
    EndIf()
    0()
   IfPlayerPicksChoice(1,null)
    If(7,100,0)
     ShowMessageFace("",0,0,2,14)
     ShowMessage("\\n<Informant>Thanks for your business. So the good stuff eh? It's mostly about the Elka Company.")
     ShowMessageFace("",0,0,2,15)
     ShowMessage("\\n<Informant>The Elka Company controls over the underground society in the Southern half of the Sentora continent, but they have a sort of patron, thanks to whom no one can stand against them.")
     ShowMessageFace("",0,0,2,16)
     ShowMessage("\\n<Informant>The patron is called Lazarus.")
     If(0,6,0)
      ShowMessageFace("sonia_fc2",2,0,2,17)
      ShowMessage("\\n<Sonya>Please don't tell me he's talking about uncle Lazarus.")
      0()
     Else()
      ShowMessageFace("ruka_fc1",0,0,2,18)
      ShowMessage("\\n<Luka>He couldn't mean uncle Lazarus, right?")
      0()
     EndIf()
     ShowMessageFace("",0,0,2,19)
     ShowMessage("\\n<Informant>Hahaha, small world am I right? But your uncle is someone with the same name. Lazarus didn't have family.")
     ShowMessageFace("",0,0,2,20)
     ShowMessage("\\n<Informant>Well, he is raising the daughter of one of his old companions. I think the girl is priestess or something now.")
     If(0,6,0)
      ShowMessageFace("sonia_fc2",3,0,2,21)
      ShowMessage("\\n<Sonya>And the girl's name is 'Sonya', correct? I'm her. Lazarus is my uncle.")
      ShowMessageFace("",0,0,2,22)
      ShowMessage("\\n<Informant>Eh? What, I've been selling info to Lazarus's kid?")
      0()
     Else()
      ShowMessageFace("ruka_fc1",0,0,2,23)
      ShowMessage("\\n<Luka>Is that priestess's name 'Sonya'? If it is, then we must be talking about the same Lazarus.")
      ShowMessageFace("",0,0,2,24)
      ShowMessage("\\n<Informant>Eh? So how do you know him?")
      ShowMessageFace("ruka_fc1",0,0,2,25)
      ShowMessage("\\n<Luka>He's not actually my uncle, he's more like my godfather.")
      0()
     EndIf()
     ShowMessageFace("",0,0,2,26)
     ShowMessage("\\n<Informant>Please, pardon my rudeness! I was unaware you're part of Mr. Lazarus' family and acted disrespectfully.")
     ShowMessageFace("",0,0,2,27)
     ShowMessage("\\n<Informant>Please forget about the information fee. I could never charge Sir Mr. Lazarus's family.")
     ShowMessageFace("",0,0,2,28)
     ShowMessage("\\n<Informant>If you're part of Mr. Lazarus's family, Elka would definitely talk with you, though you'll need proof.")
     ShowMessageFace("",0,0,2,29)
     ShowMessage("\\n<Informant>In any case, that's all I got. If possible I would like to help you but, that's all I have for info.")
     If(0,6,0)
      ShowMessageFace("sonia_fc1",5,0,2,30)
      ShowMessage("\\n<Sonya>Why in the hell is uncle Lazarus like a damn idol to these thugs. He'd better not be doing anything bad.")
      If(4,531,0)
       ShowMessageFace("saniria_fc2",0,0,2,31)
       ShowMessage("\\n<King of San Ilia>Like the assassinating the pope?")
       ShowMessageFace("sonia_fc2",3,0,2,32)
       ShowMessage("\\n<Sonya>T-there's no proof of that!")
       0()
      EndIf()
      0()
     EndIf()
     ChangeVariable(1024,1024,0,0,1)
     EndEventProcessing()
     0()
    Else()
     ShowMessageFace("",0,0,2,33)
     ShowMessage("\\n<Informant>You don't have enough money.")
     EndEventProcessing()
     0()
    EndIf()
    0()
   IfPlayerPicksChoice(2,null)
    0()
   404()
   0()
  EndIf()
  If(1,1024,0,1,1)
   ShowMessageFace("",0,0,2,34)
   ShowMessage("\\n<Informant>Need a refresher? Free of charge of course.")
   ShowMessageFace("",0,0,2,35)
   ShowMessage("\\n<Informant>The Elka Company owns this town. Their power extends across the whole South of Sentora.")
   ShowMessageFace("",0,0,2,36)
   ShowMessage("\\n<Informant>Their headquarters is that large building on the far East side of town. Their boss is Elka, the 8th boss since the company was founded.")
   ShowMessageFace("",0,0,2,37)
   ShowMessage("\\n<Informant>Elka treats Lazarus like his older brother. If you can prove you're Lazarus's family, then Elka will meet with you.")
   ShowMessageFace("",0,0,2,38)
   ShowMessage("\\n<Informant>This is all I know. I beg for your forgiveness for earlier.")
   EndEventProcessing()
   0()
  EndIf()
  0()



EVENT   12
 PAGE   1
  250(bytes(0x04,0x08,0x6f,0x3a,0x0c,0x52,0x50,0x47,0x3a,0x3a,0x53,0x45,0x08,0x3a,0x0a,0x40,0x6e,0x61,0x6d,0x65,0x49,0x22,0x09,0x4d,0x6f,0x76,0x65,0x06,0x3a,0x06,0x45,0x54,0x3a,0x0b,0x40,0x70,0x69,0x74,0x63,0x68,0x69,0x69,0x3a,0x0c,0x40,0x76,0x6f,0x6c,0x75,0x6d,0x65,0x69,0x55))
  TeleportPlayer(0,219,72,62,0,0)
  0()



EVENT   13
 PAGE   1
  250(bytes(0x04,0x08,0x6f,0x3a,0x0c,0x52,0x50,0x47,0x3a,0x3a,0x53,0x45,0x08,0x3a,0x0a,0x40,0x6e,0x61,0x6d,0x65,0x49,0x22,0x09,0x4d,0x6f,0x76,0x65,0x06,0x3a,0x06,0x45,0x54,0x3a,0x0b,0x40,0x70,0x69,0x74,0x63,0x68,0x69,0x69,0x3a,0x0c,0x40,0x76,0x6f,0x6c,0x75,0x6d,0x65,0x69,0x55))
  TeleportPlayer(0,219,58,62,0,0)
  0()



EVENT   14
 PAGE   1
  250(bytes(0x04,0x08,0x6f,0x3a,0x0c,0x52,0x50,0x47,0x3a,0x3a,0x53,0x45,0x08,0x3a,0x0a,0x40,0x6e,0x61,0x6d,0x65,0x49,0x22,0x09,0x4d,0x6f,0x76,0x65,0x06,0x3a,0x06,0x45,0x54,0x3a,0x0b,0x40,0x70,0x69,0x74,0x63,0x68,0x69,0x69,0x3a,0x0c,0x40,0x76,0x6f,0x6c,0x75,0x6d,0x65,0x69,0x55))
  TeleportPlayer(0,219,86,62,0,0)
  0()



EVENT   10
 PAGE   1
  ShowMessageFace("",0,0,2,1)
  ShowMessage("\\n<Shopkeeper>Welcome, this is a tool shop certified by Elka Company! We guarantee the quality!")
  Shop(0,2,0,0,false)
  605(0,7,0,0)
  605(0,11,0,0)
  605(0,13,0,0)
  605(0,14,0,0)
  605(0,15,0,0)
  605(0,16,0,0)
  605(0,17,0,0)
  605(0,18,0,0)
  605(0,19,0,0)
  605(0,23,0,0)
  0()



EVENT   19
 PAGE   1
  ShowMessageFace("",0,0,2,1)
  ShowMessage("\\n<Priest>Welcome to the Graveyard Church. What can I do for you?")
  ShowChoices(strings("Pray","Never mind"),2)
  IfPlayerPicksChoice(0,null)
   ChangeVariable(1002,1002,0,0,14)
   ShowMessageFace("",0,0,2,2)
   ShowMessage("\\n<Priest>Well then, let us pray to Ilias. There, you should feel a bond drawing you to this place.")
   ShowMessageFace("",0,0,2,3)
   ShowMessage("\\n<Priest>If something were to happen to you on your journey, the bond should lead you back here. May Ilias watch over you.")
   0()
  IfPlayerPicksChoice(1,null)
   ShowMessageFace("",0,0,2,4)
   ShowMessage("\\n<Priest>May Ilias watch over you.")
   0()
  404()
  0()



EVENT   15
 PAGE   1
  ShowMessageFace("",0,0,2,1)
  ShowMessage("\\n<Old Man>Are you heading to Sabasa? Then I'd recommend you stock up here and get on the road then. There's not much reason to stay in this slum for longer than you need to.")
  ShowMessageFace("",0,0,2,2)
  ShowMessage("\\n<Old Man>To get to Sabasa, you'll have to go Southwest for a very long time. After a while, the wasteland will eventually end and open up to desert. Rubiana is right on the lip of the desert.")
  ShowMessageFace("",0,0,2,3)
  ShowMessage("\\n<Old Man>Oh right, that village is abandoned now. Still, you should be able to find an empty bed to sleep on.")
  0()



EVENT   16
 PAGE   1
  ShowMessageFace("",0,0,2,1)
  ShowMessage("\\n<Warrior>You can see the Carlos Hill from here, it's Southeast of the town, but there's nothing there besides monsters.")
  ShowMessageFace("",0,0,2,2)
  ShowMessage("\\n<Warrior>Unless you have something to do there, it's pointless to visit, and I can't think of anything to do there in the first place.")
  355("actor_label_jump")
  EndEventProcessing()
  DefineLabel("12")
  ShowMessageFace("sylph_fc1",0,0,2,3)
  ShowMessage("\\n<Sylph>It's perfect for hiking♪.")
  EndEventProcessing()
  DefineLabel("101")
  ShowMessageFace("cent2_fc1",0,0,2,4)
  ShowMessage("\\n<Lihitinu>Since we're in the area, how about we ride in there for a bit?")
  EndEventProcessing()
  DefineLabel("139")
  ShowMessageFace("fairys_fc1",3,0,2,5)
  ShowMessage("\\n<Fairies>Hey, hey, let's go explore in there♪.")
  EndEventProcessing()
  0()



EVENT   20
 PAGE   1
  ShowMessageFace("",0,0,2,1)
  ShowMessage("\\n<Youth>Justice Kaiser is the protector of the town. I'm her biggest fan.")
  ShowMessageFace("",0,0,2,2)
  ShowMessage("\\n<Youth>Once Justice Kaiser defeats the Elka Company, then the town will be truly peaceful!")
  355("actor_label_jump")
  EndEventProcessing()
  DefineLabel("155")
  ShowMessageFace("saki_fc1",3,0,2,3)
  ShowMessage("\\n<Saki>Is Justice Kaiser this town's idol? I won't lose☆.")
  EndEventProcessing()
  0()



EVENT   22
 PAGE   1
  If(1,1024,0,0,0)
   ShowMessageFace("",0,0,2,1)
   ShowMessage("\\n<Warrior>This building ahead is private property. If you aren't related to the company, then leave.")
   EndEventProcessing()
   0()
  EndIf()
  If(1,1024,0,1,0)
   ShowMessageFace("",0,0,2,2)
   ShowMessage("\\n<Warrior>This building ahead is private property. If you aren't related to the company, then leave.")
   ShowMessageFace("ruka_fc1",0,0,2,3)
   ShowMessage("\\n<Luka>We need to prove we're acquainted with uncle Lazarus. Let's go ask him.")
   EndEventProcessing()
   0()
  EndIf()
  If(1,1024,0,2,0)
   ShowMessageFace("",0,0,2,4)
   ShowMessage("\\n<Warrior>This building is private property. If you aren't involved with the company, then leave.")
   ShowMessageFace("ruka_fc1",0,0,2,5)
   ShowMessage("\\n<Luka>Um, we have letter of introduction from Lazarus.")
   ShowMessageFace("",0,0,2,6)
   ShowMessage("\\n<Warrior>Mr Lazarus?! Let's see me see that!")
   ShowMessageFace("",0,0,2,7)
   ShowMessage("\\n<Warrior>...there's no mistake, this is the real deal. I'll show you to Elka.")
   ShowMessageFace("",0,0,2,8)
   ShowMessage("We were then escorted into to the building.")
   221()
   ChangeVariable(1024,1024,0,0,3)
   Wait(60)
   TeleportPlayer(0,219,72,35,8,2)
   222()
   0()
  EndIf()
  0()
 PAGE   2
  // condition: variable 1024 >= 3
  0()



EVENT   23
 PAGE   1
  ShowMessageFace("",0,0,2,1)
  ShowMessage("\\n<Youth>Rumor has it that a succubus is prowling around Monte Carlo. Apparently she attacks men in the back alleys and rapes em.")
  ShowMessageFace("",0,0,2,2)
  ShowMessage("\\n<Youth>Of course me hanging around back alleys has nothing to do with that, but you guys should leave before the succubus gets you.")
  0()
 PAGE   2
  // condition: variable 1024 >= 3
  0()



EVENT   24
 PAGE   1
  ShowMessageFace("",0,0,2,1)
  ShowMessage("\\n<Old Man>A young girl has been entering and exiting that house over there a lot. She should probably stay inside more, this town isn't safe for lasses like her.")
  0()



EVENT   25
 PAGE   1
  ShowMessageFace("",0,0,2,1)
  ShowMessage("\\n<Minstrel>Ugh, this town is like a maze. I feel like I'm getting lost every time I come here.")
  355("actor_label_jump")
  EndEventProcessing()
  DefineLabel("66")
  ShowMessageFace("vgirl_fc1",2,0,2,2)
  ShowMessage("\\n<Vanilla>I would definitely get lost if I had to navigate alone.")
  EndEventProcessing()
  DefineLabel("102")
  ShowMessageFace("youko_fc1",2,0,2,3)
  ShowMessage("\\n<Kitsu>I can't remember the layout of this town at all!")
  EndEventProcessing()
  DefineLabel("103")
  ShowMessageFace("kamuro_fc1",0,0,2,4)
  ShowMessage("\\n<Kamuro>I went ahead and made a map, so I don't have to worry about getting lost. Am I being too meticulous?")
  EndEventProcessing()
  0()



EVENT   27
 PAGE   1
  ShowMessageFace("",0,0,2,1)
  ShowMessage("\\n<Sleazy Man>Hey, there. Don't you know this is a toll road...")
  ShowMessageFace("",0,0,2,2)
  ShowMessage("\\n<Sleazy Man>...nope, it's nothing. You guys are too strong despite looking so green.")
  ShowMessageFace("",0,0,2,3)
  ShowMessage("\\n<Sleazy Man>A cosplaying women has been interfering with my business. Damn it, I'm gonna go broke if she keeps me from extorting greenhorns.")
  355("actor_label_jump")
  EndEventProcessing()
  DefineLabel("89")
  ShowMessageFace("ropa_fc1",0,0,2,4)
  ShowMessage("\\n<Cindy>And here I thought I could eat him if he attacked us.")
  EndEventProcessing()
  DefineLabel("116")
  ShowMessageFace("iso_fc1",0,0,2,5)
  ShowMessage("\\n<Isabelle>Oh my, he's not attacking. What a shame, I'm starving fufufu...")
  EndEventProcessing()
  DefineLabel("125")
  ShowMessageFace("grizzly_fc1",0,0,2,6)
  ShowMessage("\\n<Aisha>To think about attacking a bear, even for a second, he must have guts or lacking a brain.")
  EndEventProcessing()
  0()



EVENT   28
 PAGE   1
  ShowMessageFace("",0,0,2,1)
  ShowMessage("\\n<Swordsman>I can't drink any more♪ uhehe♪")
  ShowMessageFace("",0,0,2,2)
  ShowMessage("A drunk swordsman was robbed of his sword, his shoelaces, and other belongings.")
  355("actor_label_jump")
  EndEventProcessing()
  DefineLabel("74")
  ShowMessageFace("usagi_fc1",2,0,2,3)
  ShowMessage("\\n<Barnny>Oh dear, I need to warn Sheepy as well.")
  EndEventProcessing()
  DefineLabel("75")
  ShowMessageFace("hituzi_fc1",3,0,2,4)
  ShowMessage("\\n<Mary>I need to be careful round here. Hic.")
  EndEventProcessing()
  DefineLabel("136")
  ShowMessageFace("elf_fc1",0,0,2,5)
  ShowMessage("\\n<Claudia>Hmph, how pathetic.")
  EndEventProcessing()
  0()



EVENT   29
 PAGE   1
  ShowMessageFace("",0,0,2,1)
  ShowMessage("\\n<Gruff Man>Across that bridge is the Elka Company headquarters. Personally, I'd avoid that place if I were you.")
  0()



EVENT   30
 PAGE   1
  ShowMessageFace("",0,0,2,1)
  ShowMessage("\\n<Old Man>There are too many who lose there lives in pointless conflicts. Idiots and hotheads who have too much pride to run when they can't win.")
  ShowMessageFace("",0,0,2,2)
  ShowMessage("\\n<Old Man>...mm? Me? Can't you tell by my age?")
  355("actor_label_jump")
  EndEventProcessing()
  DefineLabel("88")
  ShowMessageFace("jack_fc1",0,0,2,3)
  ShowMessage("\\n<Pumpkin>I run away too when the enemy is scary.")
  EndEventProcessing()
  DefineLabel("99")
  ShowMessageFace("namazu_fc1",0,0,2,4)
  ShowMessage("\\n<Gigi>You should listen to your elder's advice.")
  EndEventProcessing()
  0()



EVENT   31
 PAGE   1
  ShowMessageFace("",0,0,2,1)
  ShowMessage("\\n<Traveling Warrior>If you are heading to Sabasa, stock up, it's a long and dangerous path there.")
  0()



EVENT   32
 PAGE   1
  ShowMessageFace("",0,0,2,1)
  ShowMessage("\\n<Boy>Justice Kaiser, transform! Yahhh!")
  355("actor_label_jump")
  EndEventProcessing()
  DefineLabel("88")
  ShowMessageFace("jack_fc1",1,0,2,2)
  ShowMessage("\\n<Pumpkin>Can I play too?")
  ShowMessageFace("",0,0,2,3)
  ShowMessage("\\n<Boy>Sure! You'll be the bad pumpkin monster!")
  ShowMessageFace("jack_fc1",2,0,2,4)
  ShowMessage("\\n<Pumpkin>Ehhh.")
  EndEventProcessing()
  355("actor_label_jump")
  EndEventProcessing()
  DefineLabel("138")
  ShowMessageFace("tfairy_fc1",0,0,2,5)
  ShowMessage("\\n<Milly & Liru>Yaay, we'll play with you♪")
  EndEventProcessing()
  0()



EVENT   33
 PAGE   1
  // condition: variable 1024 >= 3
  ShowMessageFace("",0,0,2,1)
  ShowMessage("\\n<Warrior>Please, go in. Give my regards to Lazarus.")
  0()



EVENT   35
 PAGE   1
  // condition: variable 1024 >= 3
  0()
 PAGE   2
  // condition: variable 1024 >= 4
  If(1,1024,0,5,2)
   ShowMessageFace("",0,0,2,1)
   ShowMessage("\\n<Youth>......")
   0()
  EndIf()
  If(1,1024,0,6,1)
   ShowMessageFace("",0,0,2,2)
   ShowMessage("\\n<Youth>I'm waiting here.")
   0()
  EndIf()
  355("actor_label_jump")
  EndEventProcessing()
  DefineLabel("143")
  ShowMessageFace("eva_fc1",0,0,2,3)
  ShowMessage("\\n<Eva>Oh, sorry. I'm not hungry.")
  ShowMessageFace("",0,0,2,4)
  ShowMessage("\\n<Youth>N-no way. M-my hopes and d-dreams.")
  EndEventProcessing()
  0()



EVENT   36
 PAGE   1
  // condition: variable 1024 >= 3
  0()
 PAGE   2
  // condition: variable 1024 >= 4
  0()



EVENT   34
 PAGE   1
  // condition: variable 1024 >= 3
  ShowMessageFace("ruka_fc1",0,0,2,1)
  ShowMessage("\\n<Luka>Ah, that's...!")
  241(bytes(0x04,0x08,0x6f,0x3a,0x0d,0x52,0x50,0x47,0x3a,0x3a,0x42,0x47,0x4d,0x08,0x3a,0x0a,0x40,0x6e,0x61,0x6d,0x65,0x49,0x22,0x0a,0x6b,0x69,0x6b,0x69,0x32,0x06,0x3a,0x06,0x45,0x54,0x3a,0x0c,0x40,0x76,0x6f,0x6c,0x75,0x6d,0x65,0x69,0x69,0x3a,0x0b,0x40,0x70,0x69,0x74,0x63,0x68,0x69,0x69))
  ShowMessageFace("",0,0,2,2)
  ShowMessage("A succubus approaches the Youth!")
  PictureDisplay(5,"80_eva_st02",0,0,0,0,100,100,0,0)
  PictureMove(5,null,0,0,0,0,100,100,255,0,30,true)
  ShowMessageFace("eva_fc1",1,0,2,3)
  ShowMessage("\\n<Eva>Fufu, you look delicious. Don't worry, I'll make sure to squeeze every last drop out of you.")
  205(36,bytes(0x04,0x08,0x6f,0x3a,0x13,0x52,0x50,0x47,0x3a,0x3a,0x4d,0x6f,0x76,0x65,0x52,0x6f,0x75,0x74,0x65,0x09,0x3a,0x0c,0x40,0x72,0x65,0x70,0x65,0x61,0x74,0x46,0x3a,0x0f,0x40,0x73,0x6b,0x69,0x70,0x70,0x61,0x62,0x6c,0x65,0x46,0x3a,0x0a,0x40,0x77,0x61,0x69,0x74,0x54,0x3a,0x0a,0x40,0x6c,0x69,0x73,0x74,0x5b,0x08,0x6f,0x3a,0x15,0x52,0x50,0x47,0x3a,0x3a,0x4d,0x6f,0x76,0x65,0x43,0x6f,0x6d,0x6d,0x61,0x6e,0x64,0x07,0x3a,0x0a,0x40,0x63,0x6f,0x64,0x65,0x69,0x07,0x3a,0x10,0x40,0x70,0x61,0x72,0x61,0x6d,0x65,0x74,0x65,0x72,0x73,0x5b,0x00,0x6f,0x3b,0x0a,0x07,0x3b,0x0b,0x69,0x07,0x3b,0x0c,0x5b,0x00,0x6f,0x3b,0x0a,0x07,0x3b,0x0b,0x69,0x00,0x3b,0x0c,0x5b,0x00))
  ShowMessageFace("eva_fc1",1,0,2,4)
  ShowMessage("\\n<Eva>Don't worry, I'm not going to kill you. Fufufu, I'll just squeeze you dry while letting you taste heaven.")
  ShowMessageFace("",0,0,2,5)
  ShowMessage("\\n<Youth>Woahh! ♪　Someone save me. ♪")
  ShowMessageFace("eva_fc1",1,0,2,6)
  ShowMessage("\\n<Eva>Fufu, No one is going to come for you. Just surrender, or don't, you're getting raped either way.")
  PictureClear(5)
  ShowChoices(strings("Help him","Let it be"),0)
  IfPlayerPicksChoice(0,null)
   ShowMessageFace("ruka_fc1",0,0,2,7)
   ShowMessage("\\n<Luka>This is bad, we need to save him.")
   ShowMessageFace("",0,0,2,8)
   ShowMessage("I tried to rush in there, but the next moment.")
   0()
  IfPlayerPicksChoice(1,null)
   RunCommonEvent(303)
   ShowMessageFace("ruka_fc1",0,0,2,9)
   ShowMessage("\\n<Luka>I don't think he wants to be saved.")
   ShowMessageFace("",0,0,2,10)
   ShowMessage("As I stood on the sidelines.")
   0()
  404()
  241(bytes(0x04,0x08,0x6f,0x3a,0x0d,0x52,0x50,0x47,0x3a,0x3a,0x42,0x47,0x4d,0x08,0x3a,0x0a,0x40,0x6e,0x61,0x6d,0x65,0x49,0x22,0x09,0x68,0x65,0x72,0x6f,0x06,0x3a,0x06,0x45,0x54,0x3a,0x0c,0x40,0x76,0x6f,0x6c,0x75,0x6d,0x65,0x69,0x69,0x3a,0x0b,0x40,0x70,0x69,0x74,0x63,0x68,0x69,0x69))
  ChangeSwitch(31,31,0)
  205(37,bytes(0x04,0x08,0x6f,0x3a,0x13,0x52,0x50,0x47,0x3a,0x3a,0x4d,0x6f,0x76,0x65,0x52,0x6f,0x75,0x74,0x65,0x09,0x3a,0x0c,0x40,0x72,0x65,0x70,0x65,0x61,0x74,0x46,0x3a,0x0f,0x40,0x73,0x6b,0x69,0x70,0x70,0x61,0x62,0x6c,0x65,0x46,0x3a,0x0a,0x40,0x77,0x61,0x69,0x74,0x46,0x3a,0x0a,0x40,0x6c,0x69,0x73,0x74,0x5b,0x0a,0x6f,0x3a,0x15,0x52,0x50,0x47,0x3a,0x3a,0x4d,0x6f,0x76,0x65,0x43,0x6f,0x6d,0x6d,0x61,0x6e,0x64,0x07,0x3a,0x0a,0x40,0x63,0x6f,0x64,0x65,0x69,0x18,0x3a,0x10,0x40,0x70,0x61,0x72,0x61,0x6d,0x65,0x74,0x65,0x72,0x73,0x5b,0x00,0x6f,0x3b,0x0a,0x07,0x3b,0x0b,0x69,0x16,0x3b,0x0c,0x5b,0x00,0x6f,0x3b,0x0a,0x07,0x3b,0x0b,0x69,0x15,0x3b,0x0c,0x5b,0x00,0x6f,0x3b,0x0a,0x07,0x3b,0x0b,0x69,0x17,0x3b,0x0c,0x5b,0x00,0x6f,0x3b,0x0a,0x07,0x3b,0x0b,0x69,0x00,0x3b,0x0c,0x5b,0x00))
  Wait(15)
  PictureDisplay(5,"80_justice_st01",0,0,0,0,100,100,0,0)
  PictureMove(5,null,0,0,0,0,100,100,255,0,30,true)
  ShowMessageFace("justice_fc1",0,0,2,11)
  ShowMessage("\\n<???>HAa!!")
  ShowMessageFace("",0,0,2,12)
  ShowMessage("A strangely-dressed woman has appeared!")
  ShowMessageFace("eva_fc1",2,0,2,13)
  ShowMessage("\\n<Eva>Y-you are...?!")
  ShowMessageFace("justice_fc1",0,0,2,14)
  ShowMessage("\\n<???>An ally of justice, a\\*\\fi hero\\*\\fi, Justice Kaiser!")
  Wait(15)
  PictureClear(5)
  205(37,bytes(0x04,0x08,0x6f,0x3a,0x13,0x52,0x50,0x47,0x3a,0x3a,0x4d,0x6f,0x76,0x65,0x52,0x6f,0x75,0x74,0x65,0x09,0x3a,0x0c,0x40,0x72,0x65,0x70,0x65,0x61,0x74,0x46,0x3a,0x0f,0x40,0x73,0x6b,0x69,0x70,0x70,0x61,0x62,0x6c,0x65,0x46,0x3a,0x0a,0x40,0x77,0x61,0x69,0x74,0x46,0x3a,0x0a,0x40,0x6c,0x69,0x73,0x74,0x5b,0x08,0x6f,0x3a,0x15,0x52,0x50,0x47,0x3a,0x3a,0x4d,0x6f,0x76,0x65,0x43,0x6f,0x6d,0x6d,0x61,0x6e,0x64,0x07,0x3a,0x0a,0x40,0x63,0x6f,0x64,0x65,0x69,0x2a,0x3a,0x10,0x40,0x70,0x61,0x72,0x61,0x6d,0x65,0x74,0x65,0x72,0x73,0x5b,0x00,0x6f,0x3b,0x0a,0x07,0x3b,0x0b,0x69,0x13,0x3b,0x0c,0x5b,0x07,0x69,0x08,0x69,0x06,0x6f,0x3b,0x0a,0x07,0x3b,0x0b,0x69,0x00,0x3b,0x0c,0x5b,0x00))
  ShowMessageFace("justice_fc1",0,0,2,15)
  ShowMessage("\\n<Justice Kaiser>Rah!")
  Wait(15)
  PictureDisplay(5,"80_justice_st01",0,0,-150,0,100,100,0,0)
  PictureDisplay(6,"80_eva_st03",0,0,150,0,100,100,0,0)
  ShowMessageFace("eva_fc1",2,0,2,16)
  ShowMessage("\\n<Eva>Who on earth are you?! Why do you keep getting in my way?!")
  ShowMessageFace("justice_fc1",0,0,2,17)
  ShowMessage("\\n<Justice Kaiser>My heart and soul shall not forgive villains threatening the weak! Take this,\\*\\fi Justice Knuckle!\\*\\fi")
  ShowMessageFace("eva_fc1",2,0,2,18)
  ShowMessage("\\n<Eva>Ahh damn, just when I was about to eat. Fine, I'll find another man!")
  Wait(15)
  PictureClear(5)
  PictureClear(6)
  250(bytes(0x04,0x08,0x6f,0x3a,0x0c,0x52,0x50,0x47,0x3a,0x3a,0x53,0x45,0x08,0x3a,0x0a,0x40,0x6e,0x61,0x6d,0x65,0x49,0x22,0x0d,0x6d,0x6f,0x6e,0x5f,0x77,0x61,0x72,0x70,0x06,0x3a,0x06,0x45,0x54,0x3a,0x0b,0x40,0x70,0x69,0x74,0x63,0x68,0x69,0x69,0x3a,0x0c,0x40,0x76,0x6f,0x6c,0x75,0x6d,0x65,0x69,0x69))
  205(36,bytes(0x04,0x08,0x6f,0x3a,0x13,0x52,0x50,0x47,0x3a,0x3a,0x4d,0x6f,0x76,0x65,0x52,0x6f,0x75,0x74,0x65,0x09,0x3a,0x0c,0x40,0x72,0x65,0x70,0x65,0x61,0x74,0x46,0x3a,0x0f,0x40,0x73,0x6b,0x69,0x70,0x70,0x61,0x62,0x6c,0x65,0x46,0x3a,0x0a,0x40,0x77,0x61,0x69,0x74,0x46,0x3a,0x0a,0x40,0x6c,0x69,0x73,0x74,0x5b,0x07,0x6f,0x3a,0x15,0x52,0x50,0x47,0x3a,0x3a,0x4d,0x6f,0x76,0x65,0x43,0x6f,0x6d,0x6d,0x61,0x6e,0x64,0x07,0x3a,0x0a,0x40,0x63,0x6f,0x64,0x65,0x69,0x2c,0x3a,0x10,0x40,0x70,0x61,0x72,0x61,0x6d,0x65,0x74,0x65,0x72,0x73,0x5b,0x00,0x6f,0x3b,0x0a,0x07,0x3b,0x0b,0x69,0x00,0x3b,0x0c,0x5b,0x00))
  ShowMessageFace("",0,0,2,19)
  ShowMessage("Eva has escaped!")
  241(bytes(0x04,0x08,0x6f,0x3a,0x0d,0x52,0x50,0x47,0x3a,0x3a,0x42,0x47,0x4d,0x08,0x3a,0x0a,0x40,0x6e,0x61,0x6d,0x65,0x49,0x22,0x0a,0x6d,0x75,0x72,0x61,0x33,0x06,0x3a,0x06,0x45,0x54,0x3a,0x0c,0x40,0x76,0x6f,0x6c,0x75,0x6d,0x65,0x69,0x69,0x3a,0x0b,0x40,0x70,0x69,0x74,0x63,0x68,0x69,0x69))
  ShowMessageFace("justice_fc1",0,0,2,20)
  ShowMessage("\\n<Justice Kaiser>Damn! She has eluded me once more!")
  205(37,bytes(0x04,0x08,0x6f,0x3a,0x13,0x52,0x50,0x47,0x3a,0x3a,0x4d,0x6f,0x76,0x65,0x52,0x6f,0x75,0x74,0x65,0x09,0x3a,0x0c,0x40,0x72,0x65,0x70,0x65,0x61,0x74,0x46,0x3a,0x0f,0x40,0x73,0x6b,0x69,0x70,0x70,0x61,0x62,0x6c,0x65,0x46,0x3a,0x0a,0x40,0x77,0x61,0x69,0x74,0x46,0x3a,0x0a,0x40,0x6c,0x69,0x73,0x74,0x5b,0x07,0x6f,0x3a,0x15,0x52,0x50,0x47,0x3a,0x3a,0x4d,0x6f,0x76,0x65,0x43,0x6f,0x6d,0x6d,0x61,0x6e,0x64,0x07,0x3a,0x0a,0x40,0x63,0x6f,0x64,0x65,0x69,0x16,0x3a,0x10,0x40,0x70,0x61,0x72,0x61,0x6d,0x65,0x74,0x65,0x72,0x73,0x5b,0x00,0x6f,0x3b,0x0a,0x07,0x3b,0x0b,0x69,0x00,0x3b,0x0c,0x5b,0x00))
  ShowMessageFace("justice_fc1",0,0,2,21)
  ShowMessage("\\n<Justice Kaiser>It's all right citizen, \\*\\fi evil\\*\\fi has left this place. Were you injured?")
  ShowMessageFace("",0,0,2,22)
  ShowMessage("\\n<Youth>Yeah, directly to my heart...")
  205(35,bytes(0x04,0x08,0x6f,0x3a,0x13,0x52,0x50,0x47,0x3a,0x3a,0x4d,0x6f,0x76,0x65,0x52,0x6f,0x75,0x74,0x65,0x09,0x3a,0x0c,0x40,0x72,0x65,0x70,0x65,0x61,0x74,0x46,0x3a,0x0f,0x40,0x73,0x6b,0x69,0x70,0x70,0x61,0x62,0x6c,0x65,0x46,0x3a,0x0a,0x40,0x77,0x61,0x69,0x74,0x54,0x3a,0x0a,0x40,0x6c,0x69,0x73,0x74,0x5b,0x07,0x6f,0x3a,0x15,0x52,0x50,0x47,0x3a,0x3a,0x4d,0x6f,0x76,0x65,0x43,0x6f,0x6d,0x6d,0x61,0x6e,0x64,0x07,0x3a,0x0a,0x40,0x63,0x6f,0x64,0x65,0x69,0x15,0x3a,0x10,0x40,0x70,0x61,0x72,0x61,0x6d,0x65,0x74,0x65,0x72,0x73,0x5b,0x00,0x6f,0x3b,0x0a,0x07,0x3b,0x0b,0x69,0x00,0x3b,0x0c,0x5b,0x00))
  ShowMessageFace("",0,0,2,23)
  ShowMessage("\\n<Youth>......")
  205(37,bytes(0x04,0x08,0x6f,0x3a,0x13,0x52,0x50,0x47,0x3a,0x3a,0x4d,0x6f,0x76,0x65,0x52,0x6f,0x75,0x74,0x65,0x09,0x3a,0x0c,0x40,0x72,0x65,0x70,0x65,0x61,0x74,0x46,0x3a,0x0f,0x40,0x73,0x6b,0x69,0x70,0x70,0x61,0x62,0x6c,0x65,0x46,0x3a,0x0a,0x40,0x77,0x61,0x69,0x74,0x54,0x3a,0x0a,0x40,0x6c,0x69,0x73,0x74,0x5b,0x07,0x6f,0x3a,0x15,0x52,0x50,0x47,0x3a,0x3a,0x4d,0x6f,0x76,0x65,0x43,0x6f,0x6d,0x6d,0x61,0x6e,0x64,0x07,0x3a,0x0a,0x40,0x63,0x6f,0x64,0x65,0x69,0x06,0x3a,0x10,0x40,0x70,0x61,0x72,0x61,0x6d,0x65,0x74,0x65,0x72,0x73,0x5b,0x00,0x6f,0x3b,0x0a,0x07,0x3b,0x0b,0x69,0x00,0x3b,0x0c,0x5b,0x00))
  Wait(15)
  PictureDisplay(5,"80_justice_st01",0,0,0,0,100,100,0,0)
  PictureMove(5,null,0,0,0,0,100,100,255,0,30,true)
  ShowMessageFace("justice_fc1",0,0,2,24)
  ShowMessage("\\n<Justice Kaiser>Also, you there!")
  ShowMessageFace("ruka_fc1",0,0,2,25)
  ShowMessage("\\n<Luka>M-me?!")
  ShowMessageFace("justice_fc1",0,0,2,26)
  ShowMessage("\\n<Justice Kaiser>I can see the\\*\\fi spirit\\*\\fi of justice in your eyes. I have high expectations and a request for you.")
  If(0,4,0)
   ShowMessageFace("alice_fc5",0,0,2,27)
   ShowMessage("\\n<Alice>Declined.")
   0()
  EndIf()
  If(0,5,0)
   ShowMessageFace("iriasu_fc4",2,0,2,28)
   ShowMessage("\\n<Ilias>We decline.")
   0()
  EndIf()
  ShowMessageFace("justice_fc1",0,0,2,29)
  ShowMessage("\\n<Justice Kaiser>This isn't a good place, let's go to\\*\\fi my lair of justice\\*\\fi to talk about this.")
  PictureClear(5)
  Wait(15)
  205(37,bytes(0x04,0x08,0x6f,0x3a,0x13,0x52,0x50,0x47,0x3a,0x3a,0x4d,0x6f,0x76,0x65,0x52,0x6f,0x75,0x74,0x65,0x09,0x3a,0x0c,0x40,0x72,0x65,0x70,0x65,0x61,0x74,0x46,0x3a,0x0f,0x40,0x73,0x6b,0x69,0x70,0x70,0x61,0x62,0x6c,0x65,0x46,0x3a,0x0a,0x40,0x77,0x61,0x69,0x74,0x54,0x3a,0x0a,0x40,0x6c,0x69,0x73,0x74,0x5b,0x07,0x6f,0x3a,0x15,0x52,0x50,0x47,0x3a,0x3a,0x4d,0x6f,0x76,0x65,0x43,0x6f,0x6d,0x6d,0x61,0x6e,0x64,0x07,0x3a,0x0a,0x40,0x63,0x6f,0x64,0x65,0x69,0x17,0x3a,0x10,0x40,0x70,0x61,0x72,0x61,0x6d,0x65,0x74,0x65,0x72,0x73,0x5b,0x00,0x6f,0x3b,0x0a,0x07,0x3b,0x0b,0x69,0x00,0x3b,0x0c,0x5b,0x00))
  ShowMessageFace("justice_fc1",0,0,2,30)
  ShowMessage("\\n<Justice Kaiser>It's ahead of my line of sight. You get what I mean? That's\\*\\fi my house.\\*\\fi")
  ShowMessageFace("justice_fc1",0,0,2,31)
  ShowMessage("\\n<Justice Kaiser>Well then, farewell. Haa!!")
  205(37,bytes(0x04,0x08,0x6f,0x3a,0x13,0x52,0x50,0x47,0x3a,0x3a,0x4d,0x6f,0x76,0x65,0x52,0x6f,0x75,0x74,0x65,0x09,0x3a,0x0c,0x40,0x72,0x65,0x70,0x65,0x61,0x74,0x46,0x3a,0x0f,0x40,0x73,0x6b,0x69,0x70,0x70,0x61,0x62,0x6c,0x65,0x46,0x3a,0x0a,0x40,0x77,0x61,0x69,0x74,0x54,0x3a,0x0a,0x40,0x6c,0x69,0x73,0x74,0x5b,0x08,0x6f,0x3a,0x15,0x52,0x50,0x47,0x3a,0x3a,0x4d,0x6f,0x76,0x65,0x43,0x6f,0x6d,0x6d,0x61,0x6e,0x64,0x07,0x3a,0x0a,0x40,0x63,0x6f,0x64,0x65,0x69,0x2a,0x3a,0x10,0x40,0x70,0x61,0x72,0x61,0x6d,0x65,0x74,0x65,0x72,0x73,0x5b,0x00,0x6f,0x3b,0x0a,0x07,0x3b,0x0b,0x69,0x13,0x3b,0x0c,0x5b,0x07,0x69,0x00,0x69,0xf6,0x6f,0x3b,0x0a,0x07,0x3b,0x0b,0x69,0x00,0x3b,0x0c,0x5b,0x00))
  ChangeSwitch(31,31,1)
  If(4,68,0)
   ShowMessageFace("dragonp_fc1",0,0,2,32)
   ShowMessage("\\n<Papi>Ohh!! So cool!")
   If(4,62,0)
    ShowMessageFace("gob_fc1",3,0,2,33)
    ShowMessage("\\n<Gob>Really? Her?")
    0()
   EndIf()
   0()
  EndIf()
  ShowMessageFace("ruka_fc1",0,0,2,34)
  ShowMessage("\\n<Luka>......")
  ShowMessageFace("",0,0,2,35)
  ShowMessage("\\n<Youth>......")
  ShowMessageFace("",0,0,2,36)
  ShowMessage("The house on the right side is Justice Kaiser's? Now, what shall we do.")
  ChangeVariable(1024,1024,0,0,4)
  0()
 PAGE   2
  // condition: variable 1024 >= 4
  0()



EVENT   37
 PAGE   1
  // condition: switch 31 is ON
  0()



EVENT   38
 PAGE   1
  ShowMessageFace("",0,0,2,1)
  ShowMessage("\\n<Dog>Woof! Woof!")
  355("actor_label_jump")
  EndEventProcessing()
  DefineLabel("60")
  ShowMessageFace("dog_fc1",4,0,2,2)
  ShowMessage("\\n<Pochi>Woof woof! Woof!")
  EndEventProcessing()
  0()



EVENT   39
 PAGE   1
  250(bytes(0x04,0x08,0x6f,0x3a,0x0c,0x52,0x50,0x47,0x3a,0x3a,0x53,0x45,0x08,0x3a,0x0a,0x40,0x6e,0x61,0x6d,0x65,0x49,0x22,0x0a,0x49,0x74,0x65,0x6d,0x31,0x06,0x3a,0x06,0x45,0x54,0x3a,0x0b,0x40,0x70,0x69,0x74,0x63,0x68,0x69,0x69,0x3a,0x0c,0x40,0x76,0x6f,0x6c,0x75,0x6d,0x65,0x69,0x55))
  ChangeSelfSwitch("A",0)
  ChangeInventory_Item(7,0,0,1)
  0()
 PAGE   2
  // condition: self-switch A is ON
  0()



EVENT   21
 PAGE   1
  ShowMessageFace("",0,0,2,1)
  ShowMessage("\\n<Gruff Man>The Elka Company controls this town. You better keep that in mind.")
  ShowMessageFace("",0,0,2,2)
  ShowMessage("\\n<Gruff Man>Well, the Elka Company is a large organization and they aren't strapped for money, so don't screw with them and they won't screw with you.")
  0()



EVENT   40
 PAGE   1
  250(bytes(0x04,0x08,0x6f,0x3a,0x0c,0x52,0x50,0x47,0x3a,0x3a,0x53,0x45,0x08,0x3a,0x0a,0x40,0x6e,0x61,0x6d,0x65,0x49,0x22,0x0a,0x49,0x74,0x65,0x6d,0x31,0x06,0x3a,0x06,0x45,0x54,0x3a,0x0b,0x40,0x70,0x69,0x74,0x63,0x68,0x69,0x69,0x3a,0x0c,0x40,0x76,0x6f,0x6c,0x75,0x6d,0x65,0x69,0x55))
  ChangeSelfSwitch("A",0)
  ChangeInventory_Item(64,0,0,1)
  0()
 PAGE   2
  // condition: self-switch A is ON
  0()



EVENT   41
 PAGE   1
  250(bytes(0x04,0x08,0x6f,0x3a,0x0c,0x52,0x50,0x47,0x3a,0x3a,0x53,0x45,0x08,0x3a,0x0a,0x40,0x6e,0x61,0x6d,0x65,0x49,0x22,0x0a,0x49,0x74,0x65,0x6d,0x31,0x06,0x3a,0x06,0x45,0x54,0x3a,0x0b,0x40,0x70,0x69,0x74,0x63,0x68,0x69,0x69,0x3a,0x0c,0x40,0x76,0x6f,0x6c,0x75,0x6d,0x65,0x69,0x55))
  ChangeSelfSwitch("A",0)
  ChangeInventory_Item(188,0,0,1)
  0()
 PAGE   2
  // condition: self-switch A is ON
  0()



EVENT   42
 PAGE   1
  // condition: switch 1102 is ON
  // condition: switch 1103 is ON
  241(bytes(0x04,0x08,0x6f,0x3a,0x0d,0x52,0x50,0x47,0x3a,0x3a,0x42,0x47,0x4d,0x08,0x3a,0x0a,0x40,0x6e,0x61,0x6d,0x65,0x49,0x22,0x13,0x73,0x63,0x65,0x6e,0x65,0x5f,0x6f,0x64,0x61,0x79,0x61,0x6b,0x61,0x31,0x06,0x3a,0x06,0x45,0x54,0x3a,0x0c,0x40,0x76,0x6f,0x6c,0x75,0x6d,0x65,0x69,0x69,0x3a,0x0b,0x40,0x70,0x69,0x74,0x63,0x68,0x69,0x69))
  ShowMessageFace("kamuro_fc1",0,0,2,1)
  ShowMessage("\\n<Kamuro>Kitsune-senpai why do rivers flow?")
  ShowMessageFace("youko_fc1",0,0,2,2)
  ShowMessage("\\n<Kitsu>Umm, that's... Well rivers flow because if they didn't, then the water would flood at one place.")
  ShowMessageFace("kamuro_fc1",0,0,2,3)
  ShowMessage("\\n<Kamuro>As expected of Kitsune-senpai! You know everything, don't you!")
  241(bytes(0x04,0x08,0x6f,0x3a,0x0d,0x52,0x50,0x47,0x3a,0x3a,0x42,0x47,0x4d,0x08,0x3a,0x0a,0x40,0x6e,0x61,0x6d,0x65,0x49,0x22,0x0a,0x6d,0x75,0x72,0x61,0x33,0x06,0x3a,0x06,0x45,0x54,0x3a,0x0c,0x40,0x76,0x6f,0x6c,0x75,0x6d,0x65,0x69,0x69,0x3a,0x0b,0x40,0x70,0x69,0x74,0x63,0x68,0x69,0x69))
  0()
 PAGE   2
  // condition: party contains actor #102
  0()
 PAGE   3
  // condition: party contains actor #103
  0()



EVENT   43
 PAGE   1
  // condition: switch 1102 is ON
  // condition: switch 1103 is ON
  241(bytes(0x04,0x08,0x6f,0x3a,0x0d,0x52,0x50,0x47,0x3a,0x3a,0x42,0x47,0x4d,0x08,0x3a,0x0a,0x40,0x6e,0x61,0x6d,0x65,0x49,0x22,0x13,0x73,0x63,0x65,0x6e,0x65,0x5f,0x6f,0x64,0x61,0x79,0x61,0x6b,0x61,0x31,0x06,0x3a,0x06,0x45,0x54,0x3a,0x0c,0x40,0x76,0x6f,0x6c,0x75,0x6d,0x65,0x69,0x69,0x3a,0x0b,0x40,0x70,0x69,0x74,0x63,0x68,0x69,0x69))
  ShowMessageFace("kamuro_fc1",0,0,2,1)
  ShowMessage("\\n<Kamuro>Kitsune-senpai why do rivers flow?")
  ShowMessageFace("youko_fc1",0,0,2,2)
  ShowMessage("\\n<Kitsu>Umm, that's... Well rivers flow because if they didn't, then the water would flood at one place.")
  ShowMessageFace("kamuro_fc1",0,0,2,3)
  ShowMessage("\\n<Kamuro>As expected of Kitsune-senpai! You know everything, don't you!")
  241(bytes(0x04,0x08,0x6f,0x3a,0x0d,0x52,0x50,0x47,0x3a,0x3a,0x42,0x47,0x4d,0x08,0x3a,0x0a,0x40,0x6e,0x61,0x6d,0x65,0x49,0x22,0x0a,0x6d,0x75,0x72,0x61,0x33,0x06,0x3a,0x06,0x45,0x54,0x3a,0x0c,0x40,0x76,0x6f,0x6c,0x75,0x6d,0x65,0x69,0x69,0x3a,0x0b,0x40,0x70,0x69,0x74,0x63,0x68,0x69,0x69))
  0()
 PAGE   2
  // condition: party contains actor #102
  0()
 PAGE   3
  // condition: party contains actor #103
  0()



EVENT   26
 PAGE   1
  ShowMessageFace("",0,0,2,1)
  ShowMessage("\\n<Thug>If I enter Elka Company, then even I will make it big one day, damnit!")
  355("actor_label_jump")
  EndEventProcessing()
  DefineLabel("102")
  ShowMessageFace("youko_fc1",0,0,2,2)
  ShowMessage("\\n<Kitsu>I'll become a splendid kitsune as well!")
  EndEventProcessing()
  DefineLabel("143")
  ShowMessageFace("eva_fc1",0,0,2,3)
  ShowMessage("\\n<Eva>I'll make it big as well! Without working, of course!")
  EndEventProcessing()
  DefineLabel("149")
  ShowMessageFace("lamp_fc1",1,0,2,4)
  ShowMessage("\\n<Jeannie>Shall I fulfill that wish of yours?")
  ShowMessageFace("",0,0,2,5)
  ShowMessage("\\n<Thug>Hmm, Granny told me about this. She said not to nothing comes for free in this world.")
  ShowMessageFace("lamp_fc1",0,0,2,6)
  ShowMessage("\\n<Jeannie>He's rather careful. Surprising...")
  EndEventProcessing()
  DefineLabel("174")
  ShowMessageFace("sandw_fc1",0,0,2,7)
  ShowMessage("\\n<Dahlia>I'm big...")
  ShowMessageFace("",0,0,2,8)
  ShowMessage("\\n<Thug>But you got busted.")
  EndEventProcessing()
  0()



EVENT   44
 PAGE   1
  // condition: switch 1080 is ON
  ShowMessageFace("orc_fc1",1,0,2,1)
  ShowMessage("\\n<Hip>Oinkk! It's an orc raid!")
  ShowMessageFace("orc_fc1",2,0,2,2)
  ShowMessage("\\n<Hip>...is what I said and was beat up by an ally of justice. She made me do her weeding.")
  0()
 PAGE   2
  // condition: party contains actor #80
  0()



EVENT   45
 PAGE   1
  // condition: switch 1540 is ON
  241(bytes(0x04,0x08,0x6f,0x3a,0x0d,0x52,0x50,0x47,0x3a,0x3a,0x42,0x47,0x4d,0x08,0x3a,0x0a,0x40,0x6e,0x61,0x6d,0x65,0x49,0x22,0x0a,0x61,0x6d,0x69,0x72,0x61,0x06,0x3a,0x06,0x45,0x54,0x3a,0x0c,0x40,0x76,0x6f,0x6c,0x75,0x6d,0x65,0x69,0x69,0x3a,0x0b,0x40,0x70,0x69,0x74,0x63,0x68,0x69,0x69))
  If(2,"A",1)
   ChangeSelfSwitch("A",0)
   RunCommonEvent(322)
   0()
  Else()
   ShowMessageFace("amira_fc1",0,0,2,1)
   ShowMessage("\\n<Amira>You've found me here. Keep searching for me.")
   0()
  EndIf()
  241(bytes(0x04,0x08,0x6f,0x3a,0x0d,0x52,0x50,0x47,0x3a,0x3a,0x42,0x47,0x4d,0x08,0x3a,0x0a,0x40,0x6e,0x61,0x6d,0x65,0x49,0x22,0x0a,0x6d,0x75,0x72,0x61,0x33,0x06,0x3a,0x06,0x45,0x54,0x3a,0x0c,0x40,0x76,0x6f,0x6c,0x75,0x6d,0x65,0x69,0x69,0x3a,0x0b,0x40,0x70,0x69,0x74,0x63,0x68,0x69,0x69))
  EndEventProcessing()
  0()
 PAGE   2
  // condition: party contains actor #540
  0()



EVENT   18
 PAGE   1
  ShowMessageFace("",0,0,2,1)
  ShowMessage("\\n<Youth>Oh, a visitor. These are the Monte Carlo slums. Relax, I'm not gonna mug ya or anything.")
  281(1)
  355("unlimited_choices(11, [\"Inn\",")
  655("\"Weapon Shop-Blacksmith\",\"Item Shop\",")
  655("\"Church\",\"Nowhere\"])")
  If(1,11,0,0,0)
   TeleportPlayer(0,13,6,11,2,0)
   EndEventProcessing()
   0()
  EndIf()
  If(1,11,0,1,0)
   TeleportPlayer(0,13,20,21,2,0)
   EndEventProcessing()
   0()
  EndIf()
  If(1,11,0,2,0)
   TeleportPlayer(0,13,42,18,2,0)
   EndEventProcessing()
   0()
  EndIf()
  If(1,11,0,3,0)
   TeleportPlayer(0,13,47,5,2,0)
   EndEventProcessing()
   0()
  EndIf()
  If(1,11,0,4,0)
   EndEventProcessing()
   0()
  EndIf()
  0()



EVENT   17
 PAGE   1
  ChangeSelfSwitch("A",0)
  ShowMessageFace("ruka_fc1",0,0,2,1)
  ShowMessage("\\n<Luka>So this is Monte Carlo.")
  If(4,12,0)
   ShowMessageFace("sylph_fc1",0,0,2,2)
   ShowMessage("\\n<Sylph>Uwahhh, what a sleazy slum!")
   0()
  EndIf()
  If(4,41,0)
   ShowMessageFace("stein_fc2",0,0,2,3)
   ShowMessage("\\n<Promestein>Not only does this town have horrible security, it doesn't even have anything interesting to research.")
   0()
  EndIf()
  If(0,4,0)
   ShowMessageFace("alice_fc5",0,0,2,4)
   ShowMessage("\\n<Alice>Well then, let's try gathering information. I want to know more about the surroundings too.")
   0()
  EndIf()
  If(0,5,0)
   ShowMessageFace("iriasu_fc4",0,0,2,5)
   ShowMessage("\\n<Ilias>Well then, let's try gathering information. We ought to ask about the surrounding area as well.")
   0()
  EndIf()
  ShowMessageFace("ruka_fc1",0,0,2,6)
  ShowMessage("\\n<Luka>There should be an informant in a town like this. How about we try finding one first?")
  If(0,6,0)
   ShowMessageFace("sonia_fc2",2,0,2,7)
   ShowMessage("\\n<Sonya>Honestly, this slum looks horrible. I don't even want to think about spending the night here. Let's get our info and leave.")
   0()
  EndIf()
  0()
 PAGE   2
  // condition: self-switch A is ON
  0()