# -*- encoding: utf-8 -*-
=begin
= ワープの設定

スイッチ関係は重複を避ける為にIDReserve.rbで管理しています
禁止したい場合はWARP_BANの値を
個別開放したい場合はWARP_FREE_BASE値を設定してください

=end

#==============================================================================
# ■ NWConst::Warp
#==============================================================================
module NWConst::Warp
  # ワープ先一覧
  Places = [
    {:name => "Pocket Castle", :map_id => 126, :x => 15, :y => 13, :category => :地上,
      :v2location => [2, 297, 395], :v3location => [2, 297, 356]},    
    {:name => "Ilias Temple", :map_id => 5, :x => 24, :y => 11, :category => :地上,
      :v2location => [2, 297, 395], :v3location => [2, 297, 356]},    
    {:name => "Iliasville", :map_id => 2, :x => 295, :y => 356, :category => :地上,
      :v2location => [2, 297, 395], :v3location => [2, 297, 356]},    
    {:name => "Iliasburg", :map_id => 2, :x => 300, :y => 326, :category => :地上,
      :v2location => [2, 291, 2751], :v3location => [2, 302, 326]},    
    {:name => "Nameless Slum", :map_id => 2, :x => 236, :y => 341, :category => :地上,
      :v2location => [2, 244, 384], :v3location => [2, 235, 341]},    
    {:name => "Pornof", :map_id => 2, :x => 349, :y => 377, :category => :地上,
      :v2location => [2, 349, 382], :v3location => [2, 351, 377]},    
    {:name => "Happiness Village", :map_id => 2, :x => 353, :y => 326, :category => :地上,
      :v2location => [2, 388, 328], :v3location => [2, 352, 326]},    
    {:name => "Midas Village", :map_id => 2, :x => 366, :y => 279, :category => :地上,
      :v2location => [2, 362, 278], :v3location => [2, 367, 279]},    
    {:name => "Medal Queen's Castle", :map_id => 2, :x => 338, :y => 273, :category => :地上,
      :v2location => [2, 338, 268], :v3location => [2, 339, 273]},    
    {:name => "Enrika", :map_id => 2, :x => 241, :y => 368, :category => :地上,
      :v2location => [2, 244, 384], :v3location => [2, 284, 363]},    
    {:name => "Rostrum", :map_id => 2, :x => 385, :y => 354, :category => :地上,
      :v2location => [2, 388, 354], :v3location => [2, 386, 354]},    
    {:name => "Iliasport", :map_id => 2, :x => 282, :y => 275, :category => :地上,
      :v2location => [2, 281, 273], :v3location => [2, 281, 275]},    
    {:name => "Port Natalia", :map_id => 2, :x => 282, :y => 260, :category => :地上,
      :v2location => [2, 284, 261], :v3location => [2, 281, 260]},    
    {:name => "Luddite Village", :map_id => 2, :x => 257, :y => 250, :category => :地上,
      :v2location => [2, 261, 266], :v3location => [2, 258, 250]},    
    {:name => "San Ilia", :map_id => 2, :x => 236, :y => 261, :category => :地上,
      :v2location => [2, 261, 266], :v3location => [2, 238, 261]},    
    {:name => "Monte Carlo", :map_id => 2, :x => 200, :y => 273, :category => :地上,
      :v2location => [2, 261, 266], :v3location => [2, 201, 273]},    
    {:name => "Rubiana", :map_id => 2, :x => 142, :y => 317, :category => :地上,
      :v2location => [2, 261, 266], :v3location => [2, 143, 317]},    
    {:name => "Sabasa", :map_id => 2, :x => 103, :y => 294, :category => :地上,
      :v2location => [2, 101, 255], :v3location => [2, 105, 294]},    
    {:name => "Grandoll", :map_id => 2, :x => 85, :y => 272, :category => :地上,
      :v2location => [2, 101, 255], :v3location => [2, 84, 272]},    
    {:name => "Witch Hunt Village", :map_id => 2, :x => 47, :y => 295, :category => :地上,
      :v2location => [2, 60, 247], :v3location => [2, 46, 295]},    
    {:name => "Salon", :map_id => 2, :x => 98, :y => 230, :category => :地上,
      :v2location => [2, 100, 225], :v3location => [2, 100, 230]},    
    {:name => "？？？", :map_id => 2, :x => 254, :y => 234, :category => :地上,
      :v2location => [2, 253, 232], :v3location => [2, 253, 234]},    
    {:name => "？？？", :map_id => 2, :x => 335, :y => 239, :category => :地上,
      :v2location => [2, 334, 240], :v3location => [2, 338, 240]},    
    {:name => "？？？", :map_id => 2, :x => 330, :y => 209, :category => :地上,
      :v2location => [2, 325, 228], :v3location => [2, 329, 209]},    
    {:name => "？？？", :map_id => 2, :x => 328, :y => 187, :category => :地上,
      :v2location => [2, 325, 228], :v3location => [2, 327, 187]},    
    {:name => "？？？", :map_id => 2, :x => 372, :y => 166, :category => :地上,
      :v2location => [2, 325, 228], :v3location => [2, 374, 166]},    
    {:name => "？？？", :map_id => 2, :x => 261, :y => 202, :category => :地上,
      :v2location => [2, 325, 228], :v3location => [2, 263, 202]},    
    {:name => "？？？", :map_id => 2, :x => 283, :y => 198, :category => :地上,
      :v2location => [2, 325, 228], :v3location => [2, 282, 198]},    
    {:name => "？？？", :map_id => 2, :x => 236, :y => 179, :category => :地上,
      :v2location => [2, 325, 228], :v3location => [2, 235, 179]},    
    {:name => "？？？", :map_id => 2, :x => 221, :y => 176, :category => :地上,
      :v2location => [2, 325, 228], :v3location => [2, 223, 176]},    
    {:name => "？？？", :map_id => 2, :x => 234, :y => 154, :category => :地上,
      :v2location => [2, 325, 228], :v3location => [2, 233, 154]},    
    {:name => "？？？", :map_id => 2, :x => 234, :y => 131, :category => :地上,
      :v2location => [2, 325, 228], :v3location => [2, 236, 131]},    
    {:name => "？？？", :map_id => 2, :x => 165, :y => 142, :category => :地上,
      :v2location => [2, 325, 228], :v3location => [2, 167, 142]},    
    {:name => "？？？", :map_id => 2, :x => 150, :y => 122, :category => :地上,
      :v2location => [2, 325, 228], :v3location => [2, 152, 122]},    
    {:name => "？？？", :map_id => 2, :x => 154, :y => 149, :category => :地上,
      :v2location => [2, 325, 228], :v3location => [2, 155, 149]},    
    {:name => "？？？", :map_id => 2, :x => 42, :y => 348, :category => :地上,
      :v2location => [2, 46, 338], :v3location => [2, 43, 346]},    
    {:name => "？？？", :map_id => 384, :x => 23, :y => 49, :category => :地上,
      :v2location => [2, 365, 157], :v3location => [2, 372, 160]},    
    {:name => "？？？", :map_id => 2, :x => 388, :y => 158, :category => :地上,
      :v2location => [2, 389, 155], :v3location => [2, 389, 158]},    
    {:name => "？？？", :map_id => 2, :x => 89, :y => 158, :category => :地上,
      :v2location => [2, 82, 144], :v3location => [2, 91, 158]},    
    {:name => "？？？", :map_id => 2, :x => 33, :y => 193, :category => :地上,
      :v2location => [2, 82, 144], :v3location => [2, 35, 193]},    
    {:name => "？？？", :map_id => 2, :x => 223, :y => 93, :category => :地上,
      :v2location => [2, 203, 102], :v3location => [2, 222, 92]},    
    {:name => "？？？", :map_id => 2, :x => 164, :y => 55, :category => :地上,
      :v2location => [2, 203, 102], :v3location => [2, 166, 55]},    
    {:name => "？？？", :map_id => 193, :x => 300, :y => 326, :category => :天界,
      :v2location => [2, 258, 204], :v3location => [2, 263, 202]},    
    {:name => "？？？", :map_id => 193, :x => 235, :y => 354, :category => :天界,
      :v2location => [2, 258, 204], :v3location => [2, 263, 202]},    
    {:name => "？？？", :map_id => 193, :x => 241, :y => 368, :category => :天界,
      :v2location => [2, 258, 204], :v3location => [2, 263, 202]},    
    {:name => "？？？", :map_id => 193, :x => 282, :y => 260, :category => :天界,
      :v2location => [2, 258, 204], :v3location => [2, 263, 202]},    
    {:name => "？？？", :map_id => 193, :x => 257, :y => 250, :category => :天界,
      :v2location => [2, 258, 204], :v3location => [2, 263, 202]},    
    {:name => "？？？", :map_id => 193, :x => 236, :y => 261, :category => :天界,
      :v2location => [2, 258, 204], :v3location => [2, 263, 202]},    
    {:name => "？？？", :map_id => 193, :x => 142, :y => 317, :category => :天界,
      :v2location => [2, 258, 204], :v3location => [2, 263, 202]},    
    {:name => "？？？", :map_id => 193, :x => 103, :y => 294, :category => :天界,
      :v2location => [2, 258, 204], :v3location => [2, 263, 202]},    
    {:name => "？？？", :map_id => 193, :x => 98, :y => 230, :category => :天界,
      :v2location => [2, 258, 204], :v3location => [2, 263, 202]},    
    {:name => "？？？", :map_id => 193, :x => 254, :y => 234, :category => :天界,
      :v2location => [2, 258, 204], :v3location => [2, 263, 202]},    
    {:name => "？？？", :map_id => 193, :x => 330, :y => 209, :category => :天界,
      :v2location => [2, 258, 204], :v3location => [2, 263, 202]},    
    {:name => "？？？", :map_id => 193, :x => 328, :y => 187, :category => :天界,
      :v2location => [2, 258, 204], :v3location => [2, 263, 202]},    
    {:name => "？？？", :map_id => 193, :x => 261, :y => 202, :category => :天界,
      :v2location => [2, 258, 204], :v3location => [2, 263, 202]},    
    {:name => "？？？", :map_id => 193, :x => 226, :y => 174, :category => :天界,
      :v2location => [2, 258, 204], :v3location => [2, 263, 202]},    
    {:name => "？？？", :map_id => 193, :x => 234, :y => 154, :category => :天界,
      :v2location => [2, 258, 204], :v3location => [2, 263, 202]},    
    {:name => "？？？", :map_id => 193, :x => 147, :y => 85, :category => :天界,
      :v2location => [2, 258, 204], :v3location => [2, 263, 202]},    
    {:name => "？？？", :map_id => 193, :x => 152, :y => 224, :category => :天界,
      :v2location => [2, 258, 204], :v3location => [2, 263, 202]},    
    {:name => "？？？", :map_id => 193, :x => 295, :y => 356, :category => :天界,
      :v2location => [2, 258, 204], :v3location => [2, 263, 202]},    
    {:name => "？？？", :map_id => 1, :x => 295, :y => 356, :category => :魔界,
      :v2location => [2, 203, 102], :v3location => [2, 153, 89]},    
    {:name => "？？？", :map_id => 1, :x => 300, :y => 326, :category => :魔界,
      :v2location => [2, 203, 102], :v3location => [2, 153, 89]},    
    {:name => "？？？", :map_id => 1, :x => 235, :y => 354, :category => :魔界,
      :v2location => [2, 203, 102], :v3location => [2, 153, 89]},    
    {:name => "？？？", :map_id => 1, :x => 349, :y => 377, :category => :魔界,
      :v2location => [2, 203, 102], :v3location => [2, 153, 89]},    
    {:name => "？？？", :map_id => 1, :x => 355, :y => 326, :category => :魔界,
      :v2location => [2, 203, 102], :v3location => [2, 153, 89]},    
    {:name => "？？？", :map_id => 1, :x => 282, :y => 275, :category => :魔界,
      :v2location => [2, 203, 102], :v3location => [2, 153, 89]},    
    {:name => "？？？", :map_id => 1, :x => 282, :y => 260, :category => :魔界,
      :v2location => [2, 203, 102], :v3location => [2, 153, 89]},    
    {:name => "？？？", :map_id => 1, :x => 200, :y => 273, :category => :魔界,
      :v2location => [2, 203, 102], :v3location => [2, 153, 89]},    
    {:name => "？？？", :map_id => 1, :x => 103, :y => 294, :category => :魔界,
      :v2location => [2, 203, 102], :v3location => [2, 153, 89]},    
    {:name => "？？？", :map_id => 1, :x => 85, :y => 272, :category => :魔界,
      :v2location => [2, 203, 102], :v3location => [2, 153, 89]},    
    {:name => "？？？", :map_id => 1, :x => 47, :y => 295, :category => :魔界,
      :v2location => [2, 203, 102], :v3location => [2, 153, 89]},    
    {:name => "？？？", :map_id => 1, :x => 98, :y => 230, :category => :魔界,
      :v2location => [2, 203, 102], :v3location => [2, 153, 89]},    
    {:name => "？？？", :map_id => 1, :x => 254, :y => 234, :category => :魔界,
      :v2location => [2, 203, 102], :v3location => [2, 153, 89]},    
    {:name => "？？？", :map_id => 1, :x => 330, :y => 209, :category => :魔界,
      :v2location => [2, 203, 102], :v3location => [2, 153, 89]},    
    {:name => "？？？", :map_id => 1, :x => 328, :y => 187, :category => :魔界,
      :v2location => [2, 203, 102], :v3location => [2, 153, 89]},    
    {:name => "？？？", :map_id => 1, :x => 372, :y => 166, :category => :魔界,
      :v2location => [2, 203, 102], :v3location => [2, 153, 89]},    
    {:name => "？？？", :map_id => 1, :x => 283, :y => 198, :category => :魔界,
      :v2location => [2, 203, 102], :v3location => [2, 153, 89]},    
    {:name => "？？？", :map_id => 1, :x => 234, :y => 154, :category => :魔界,
      :v2location => [2, 203, 102], :v3location => [2, 153, 89]},    
    {:name => "？？？", :map_id => 1, :x => 234, :y => 131, :category => :魔界,
      :v2location => [2, 203, 102], :v3location => [2, 153, 89]},    
    {:name => "？？？", :map_id => 1, :x => 165, :y => 142, :category => :魔界,
      :v2location => [2, 203, 102], :v3location => [2, 153, 89]},    
    {:name => "？？？", :map_id => 1, :x => 43, :y => 348, :category => :魔界,
      :v2location => [2, 203, 102], :v3location => [2, 153, 89]},    
    {:name => "？？？", :map_id => 1, :x => 223, :y => 93, :category => :魔界,
      :v2location => [2, 203, 102], :v3location => [2, 153, 89]},    
    {:name => "？？？", :map_id => 1, :x => 164, :y => 55, :category => :魔界,
      :v2location => [2, 203, 102], :v3location => [2, 153, 89]},    
    {:name => "Iliasville (Alt)", :map_id => 196, :x => 59, :y => 54, :category => :地上,
      :v2location => [2, 298, 395], :v3location => [2, 300, 390]},    
    {:name => "Rostrum (Alt)", :map_id => 195, :x => 38, :y => 20, :category => :地上,
      :v2location => [2, 388, 253], :v3location => [2, 386, 354]},     
    {:name => "？？？", :map_id => 197, :x => 58, :y => 12, :category => :地上,
      :v2location => [2, 148, 230], :v3location => [2, 151, 244]},    
    {:name => "？？？", :map_id => 194, :x => 74, :y => 120, :category => :地上,
      :v2location => [2, 325, 228], :v3location => [2, 117, 138]},    
    {:name => "？？？", :map_id => 194, :x => 55, :y => 63, :category => :地上,
      :v2location => [2, 325, 228], :v3location => [2, 117, 138]},    
    {:name => "？？？", :map_id => 194, :x => 73, :y => 33, :category => :地上,
      :v2location => [2, 325, 228], :v3location => [2, 117, 138]},    
    {:name => "？？？", :map_id => 442, :x => 18, :y => 53, :category => :地上,
      :v2location => [2, 297, 395], :v3location => [2, 297, 356]},    
  ]  
end

